<svg width="28" height="28" viewBox="0 0 28 28" fill="none" xmlns="http://www.w3.org/2000/svg">
<path d="M23.5875 2.77495H20.8125V1.38744C20.8125 0.55494 20.2575 -6.10352e-05 19.425 -6.10352e-05C18.5925 -6.10352e-05 18.0375 0.55494 18.0375 1.38744V2.77495H9.71246V1.38744C9.71246 0.55494 9.15746 -6.10352e-05 8.32496 -6.10352e-05C7.49246 -6.10352e-05 6.93745 0.55494 6.93745 1.38744V2.77495H4.16245C1.80369 2.77495 -6.10352e-05 4.5787 -6.10352e-05 6.93745V12.4875V23.5875C-6.10352e-05 25.9462 1.80369 27.75 4.16245 27.75H23.5875C25.9462 27.75 27.75 25.9462 27.75 23.5875V12.4875V6.93745C27.75 4.5787 25.9462 2.77495 23.5875 2.77495ZM4.16245 5.54995H6.93745V6.93745C6.93745 7.76996 7.49246 8.32496 8.32496 8.32496C9.15746 8.32496 9.71246 7.76996 9.71246 6.93745V5.54995H18.0375V6.93745C18.0375 7.76996 18.5925 8.32496 19.425 8.32496C20.2575 8.32496 20.8125 7.76996 20.8125 6.93745V5.54995H23.5875C24.42 5.54995 24.975 6.10495 24.975 6.93745V11.1H2.77495V6.93745C2.77495 6.10495 3.32995 5.54995 4.16245 5.54995ZM23.5875 24.975H4.16245C3.32995 24.975 2.77495 24.42 2.77495 23.5875V13.875H24.975V23.5875C24.975 24.42 24.42 24.975 23.5875 24.975Z" fill="#FF1010"/>
</svg>
